\relax 
\providecommand\hyper@newdestlabel[2]{}
\providecommand\HyperFirstAtBeginDocument{\AtBeginDocument}
\HyperFirstAtBeginDocument{\ifx\hyper@anchor\@undefined
\global\let\oldcontentsline\contentsline
\gdef\contentsline#1#2#3#4{\oldcontentsline{#1}{#2}{#3}}
\global\let\oldnewlabel\newlabel
\gdef\newlabel#1#2{\newlabelxx{#1}#2}
\gdef\newlabelxx#1#2#3#4#5#6{\oldnewlabel{#1}{{#2}{#3}}}
\AtEndDocument{\ifx\hyper@anchor\@undefined
\let\contentsline\oldcontentsline
\let\newlabel\oldnewlabel
\fi}
\fi}
\global\let\hyper@last\relax 
\gdef\HyperFirstAtBeginDocument#1{#1}
\providecommand*\HyPL@Entry[1]{}
\HyPL@Entry{0<</S/D>>}
\ifx\qr@savematrix\@undefined\def\qr@savematrix{\begingroup\let\do\@makeother\dospecials\catcode`\{=1\catcode`\}=2\relax \qr@savematrix@int}\def\qr@savematrix@int#1#2#3#4{\endgroup}\fi
<<<<<<< HEAD:PIX/pronote/pronote_reservation_de_salle.aux
\newlabel{LastPage}{{}{1}{}{page.1}{}}
\xdef\lastpage@lastpage{1}
\xdef\lastpage@lastpageHy{1}
=======
\select@language{french}
\@writefile{toc}{\select@language{french}}
\@writefile{lof}{\select@language{french}}
\@writefile{lot}{\select@language{french}}
\newlabel{LastPage}{{}{2}{}{page.2}{}}
\xdef\lastpage@lastpage{2}
\xdef\lastpage@lastpageHy{2}
\gdef\minted@oldcachelist{,
  default-pyg-prefix.pygstyle,
  default.pygstyle,
  B0D3358E55822B9729D729883BDA6F8B17421527B2CA0C5B93F8D6B9EB71AD0B.pygtex,
  D41D8CD98F00B204E9800998ECF8427EA295EA5021AD0FC2CA5BFBA8D16292BA.pygtex,
  898A7165839D8A6D6D1AADCC4ABAFB8117421527B2CA0C5B93F8D6B9EB71AD0B.pygtex}
>>>>>>> adec81b31ba436819998c6452f79efdf479092fd:tice/Checklist.aux
