<?xml version="1.0" encoding="UTF-8"?>
<svg width="76px" height="65px" viewBox="0 0 76 65" version="1.1" xmlns="http://www.w3.org/2000/svg" xmlns:xlink="http://www.w3.org/1999/xlink">
    <title>checklist</title>
    <g id="Maquette-HD" stroke="none" stroke-width="1" fill="none" fill-rule="evenodd">
        <g id="Home-refont-v3" transform="translate(-1158.000000, -5419.000000)">
            <g id="Group-26" transform="translate(98.000000, 5419.000000)">
                <g id="checklist" transform="translate(1060.000000, 0.000000)">
                    <g id="Group-16" transform="translate(0.245199, 10.037991)">
                        <path d="M7.02379131,52.0877063 C4.73672388,52.0877063 2.86548688,50.2164693 2.86548688,47.9294019 L2.86548688,6.34635759 C2.86548688,4.05929016 4.73672388,2.18805316 7.02379131,2.18805316 L48.6068356,2.18805316 C50.8939031,2.18805316 52.7651401,4.05929016 52.7651401,6.34635759 L52.7651401,47.9294019 C52.7651401,50.2164693 50.8939031,52.0877063 48.6068356,52.0877063 L7.02379131,52.0877063 Z" id="Path" fill="#E8F3FF" fill-rule="nonzero"></path>
                        <path d="M1.94971972,2.18805316 C3.82538176,1.43239352 6.53639793,0.716140068 10.0827682,0.0392928009 C8.04345029,34.7382352 11.5279958,52.4569752 20.5364048,53.1955129 C34.0490183,54.3033194 3.81761227,53.3132975 1.13348946,51.054823 C0.534981502,50.9370384 0.764780085,8.9387357 1.94971972,2.18805316 Z" id="Rectangle" fill="#829DFB"></path>
                    </g>
                    <rect id="Rectangle" stroke="#2D3666" stroke-width="2.13096019" x="1.21935988" y="10.0772834" width="53.2740047" height="53.2740047" rx="5.66744731"></rect>
                    <path d="M64.4231012,1.51963394 C52.0902082,9.6400844 42.3139832,20.9760421 35.1176937,33.1326788 L34.7484762,33.7610476 L28.2150295,25.1356312 C25.9945605,22.2575592 22.0993585,21.668564 19.2623955,23.8928966 C16.4302229,26.1134732 15.8504051,30.0101179 18.0453279,32.8549342 L30.5520611,49.3897389 C32.0805361,51.3167353 33.5331395,52.1512456 36.2597203,52.1512456 C38.5780322,52.1512456 40.0986743,50.8604465 41.4825617,48.5760812 L41.5456882,48.4649233 L41.9289467,47.6398698 C42.148813,47.1703492 42.3999073,46.6513372 42.6887237,46.0750795 C43.4993609,44.4576647 44.4570826,42.6871044 45.5701434,40.7932033 C48.7051407,35.4589258 52.4707238,30.1514854 56.8805635,25.2021039 C61.5175334,19.9978027 66.6181235,15.4820695 72.1845297,11.8512124 C75.0949777,9.89551411 75.9852207,5.80723631 74.0683612,2.90874473 C72.1879563,0.0653761948 68.2518326,-0.863415342 65.3747274,0.902268298 L64.4231012,1.51963394 Z" id="Path" fill="#2D3666" fill-rule="nonzero"></path>
                    <path d="M72.1774763,4.15924367 C73.4089422,6.02134868 72.7932093,8.71105592 70.9460104,9.95245926 C50.0110897,23.607896 39.9489652,46.522029 39.5436294,47.40146 C38.7194077,48.7619922 37.7563058,49.8842667 36.2597203,49.8842667 C33.9632943,49.8842667 33.1810555,49.0566644 32.3600782,48.0221617 L19.8401747,31.4701171 C18.4034644,29.6080121 18.8139531,27.1252054 20.661152,25.6769016 C22.5083508,24.2285977 24.9712827,24.6423988 26.4079929,26.5045038 L35.0282544,37.8840344 L35.4344803,37.1438602 C40.3237479,28.324622 50.4671882,13.1766596 66.4306353,2.91784033 C68.2778342,1.67643699 70.9460104,2.29713866 72.1774763,4.15924367 Z" id="Path" fill="#FFBE00" fill-rule="nonzero"></path>
                </g>
            </g>
        </g>
    </g>
</svg>